[
    {"codigo" : 1, "nombre" : "Lunes"},
    {"codigo" : 2, "nombre" : "Martes"},
    {"codigo" : 3, "nombre" : "Miercoles"},
    {"codigo" : 4, "nombre" : "Jueves"},
    {"codigo" : 5, "nombre" : "Viernes"},
    {"codigo" : 6, "nombre" : "Sabado"},
    {"codigo" : 0, "nombre" : "Domingo"}
]