[
    {"negocio" : 1, "producto": null, "ruta" : "storage/imagenes/negocios/123456789/adventure.jpg"},
    {"negocio" : 1, "producto": null, "ruta" : "storage/imagenes/negocios/123456789/cafe.jpg"},
    {"negocio" : 1, "producto": null, "ruta" : "storage/imagenes/negocios/123456789/Camping.jpg"},
    {"negocio" : 1, "producto": null, "ruta" : "storage/imagenes/negocios/123456789/arquitectura.jpg"},
    {"negocio" : null, "producto" : 1, "ruta" : "storage/imagenes/negocios/123456789/arquitectura.jpg"},
    {"negocio" : null, "producto" : 1, "ruta" : "storage/imagenes/negocios/123456789/Camping.jpg"},
    {"negocio" : null, "producto" : 2, "ruta" : "storage/imagenes/negocios/123456789/cafe.jpg"}
]