[
    {"punto" : 1, "nombre" : "Muy malo"},
    {"punto" : 2, "nombre" : "Malo"},
    {"punto" : 3, "nombre" : "Aceptable"},
    {"punto" : 4, "nombre" : "Bueno"},
    {"punto" : 5, "nombre" : "Muy bueno"}
]