[
    {
        "negocio" : 1, 
        "nombre" : "Mesa", 
        "informacion" : "Mesa para 4 al aire libre", 
        "imagen" : "storage/imagenes/negocios/123456789/cafe.jpg",
        "minimo_personas" : 2,
        "maximo_personas" : 10
    }
]